{
	"module": "puppeteer",
	"author": "regallion",
	"email": "",
	"git": "",
	"data": {
		"skills": [
			{
				"id": "puppetry",
				"require": "g.crafting>=8&&g.spiritlore>=5",
				"desc": "Create and animate magical puppets",
				"level": 1,
				"run": {
					"stamina": 0.4
				},
				"result": {
					"sp": 0.05
				},
				"mod": {
					"minions.puppet.hp.max": "1%",
					"minions.puppet.attack.damage": "1%",
					"allies.max": 0.25,
					"research.max": 5
				}
			},
			{
				"id": "magicalanimation",
				"name": "animation",
				"require": "g.puppetry>=5&&g.spiritlore>=10",
				"desc": "Imbue objects with the power of motion",
				"level": 3,
				"run": {
					"stamina": 0.7
				},
				"result": {
					"sp": 0.05
				},
				"mod": {
					"allies.max": 0.25,
					"research.max": 5
				}
			},
			{
				"id": "machinacreation",
				"name": "mechanical magic",
				"require": "g.crafting>=12&&g.puppetry>=6&&g.magicalanimation>=5&&g.tier2>0",
				"desc": "Assemble magic constructs",
				"level": 3,
				"run": {
					"stamina": 0.7
				},
				"result": {
					"sp": 0.05
				},
				"mod": {
					"minions.machina.hp.max": "1%",
					"minions.machina.attack.damage": "1%",
					"puppetry.max": 0.2,
					"magicalanimation.max": 0.2,
					"allies.max": 0.25,
					"research.max": 5
				}
			},
			{
				"id": "magiphysics",
				"name": "magiphysics",
				"require": "g.lore>=25&&g.planeslore>=15&&g.tier4>0",
				"desc": "The study of magic in motion.",
				"level": 12,
				"run": {
					"stamina": 0.7
				},
				"result": {
					"sp": 0.05
				},
				"mod": {
					"planeslore.rate": "5%",
					"lore.rate": "10%",
					"research.max": 5
				}
			},
			{
				"id": "automatasculpting",
				"name": "automata sculpting",
				"require": "g.crafting>=18&&g.puppetry>=8&&g.magicalanimation>=6&&g.magiphysics>=5&&(g.mechanist+g.mechamancer)>0",
				"desc": "They think, therefore they are.",
				"level": 13,
				"run": {
					"stamina": 1
				},
				"result": {
					"sp": 0.05
				},
				"mod": {
					"minions.puppet.hp.max": "1%",
					"minions.puppet.attack.damage": "1%",
					"minions.machina.hp.max": "1%",
					"minions.machina.attack.damage": "1%",
					"minions.automata.hp.max": "1%",
					"minions.automata.attack.damage": "1%",
					"puppetry.max": 0.2,
					"magicalanimation.max": 0.2,
					"machinacreation.max": 0.2,
					"allies.max": 0.25,
					"research.max": 5
				}
			}
		],
		"tasks": [
			{
				"id": "puppetshow",
				"name": "puppet show",
				"desc": "Put on a show with animated puppets",
				"verb": "puppeteering",
				"require": "g.puppeteer>0",
				"length": 15,
				"at": {
					"10": {
						"effect.gold": 1
					},
					"50": {
						"effect.gems": 0.01
					},
					"100": {
						"effect.gold": 1.5
					},
					"250": {
						"effect.gems": 0.02
					}
				},
				"cost": {
					"puppets": 1
				},
				"run": {
					"stamina": 0.2,
					"spirit": 0.2
				},
				"effect": {
					"gems": 0.01,
					"gold": 4
				},
				"mod": {
					"puppetry.max": "0.01//500/-10"
				}
			},
			{
				"id": "assemblepuppet",
				"name": "assemble puppet",
				"verb": "assembling puppets",
				"require": "g.puppetry>=1",
				"need": "workspace",
				"desc": "Assemble a puppet.",
				"fill": [
					"puppets"
				],
				"length": 10,
				"cost": {
					"spiritgem": 1,
					"gold": 50,
					"research": 50
				},
				"run": {
					"stamina": 0.3,
					"spirit": 0.3
				},
				"result": {
					"puppets": 1
				}
			},
			{
				"id": "machinalabor",
				"name": "lease labor",
				"desc": "Lend some of your machinae to perform menial tasks",
				"verb": "leasing",
				"require": "g.mechanist>0",
				"length": 50,
				"at": {
					"10": {
						"effect.gold": 1
					},
					"50": {
						"effect.gold": 1.5
					},
					"100": {
						"effect.gold": 1.5
					},
					"250": {
						"effect.gold": 2
					}
				},
				"cost": {
					"machinae": 1
				},
				"effect": {
					"gold": 6,
					"gems": 0.1
				},
				"mod": {
					"machinacreation.max": "0.01//500/-10"
				}
			},
			{
				"id": "assemblemachina",
				"name": "assemble machina",
				"verb": "assembling machinae",
				"require": "g.machinacreation>=1",
				"need": "workspace",
				"desc": "Assemble a machina.",
				"length": 10,
				"fill": [
					"machinae"
				],
				"cost": {
					"gems": 5,
					"gold": 250,
					"research": 400
				},
				"run": {
					"stamina": 0.8
				},
				"result": {
					"machinae": 1
				}
			},
			{
				"id": "futurecouncil",
				"name": "plan future",
				"desc": "Counsel with your automata to plan the future.",
				"verb": "Counseling",
				"require": "g.mechamancer>0",
				"length": 100,
				"cost": {
					"automatas": 1
				},
				"run": {
					"stamina": 4,
					"research": 150
				},
				"mod": {
					"lore.max": "0.02//100/-10",
					"history.max": "0.02//100/-10",
					"charms.max": "0.02//100/-10",
					"languages.max": "0.02//100/-10",
					"automatasculpting.max": "0.05//160/-10"
				}
			},
			{
				"id": "assembleautomata",
				"name": "shape automata",
				"verb": "shaping automata",
				"require": "g.automatasculpting>=1",
				"need": "workspace",
				"desc": "Create an automata.",
				"length": 10,
				"fill": [
					"automatas"
				],
				"cost": {
					"gold": 2000,
					"research": 2000,
					"bloodgem": 20,
					"spiritgem": 20,
					"runestones": 15
				},
				"run": {
					"stamina": 2
				},
				"result": {
					"automatas": 1
				}
			},
			{
				"id": "craftfinepart",
				"name": "create fine-tuned parts",
				"verb": "engineering",
				"require": "g.automatasculpting>=5",
				"need": "workspace",
				"desc": "Create a fine-tuned part.",
				"length": 1800,
				"fill": [
					"fineparts"
				],
				"cost": {
					"gold": 2500,
					"research": 4000,
					"machinae": 2,
					"puppets": 2
				},
				"run": {
					"stamina": 2,
					"gold": 2,
					"research": 4,
					"machinae": 0.015,
					"puppets": 0.015
				},
				"result": {
					"fineparts": 1
				}
			}
		],
		"upgrades": [
			{
				"id": "finesorting",
				"name": "refined sorting",
				"desc": "Allows use of fine-tuned parts to improve sorting capacity",
				"require": "g.automatasculpting>=5&&g.autoappraiser>0",
				"max": 1,
				"cost": {
					"fineparts": 1
				}
			},
			{
				"id": "clockworkexpansion",
				"name": "clockwork expansion",
				"desc": "Expand the clockwork home with additional materials",
				"require": "g.puppetry>=5&&(g.puppeteer+g.mechanist+g.mechamancer)>0",
				"max": 2,
				"cost": {
					"puppets": 20
				},
				"mod": {
					"clockworkhome.mod.space.max": 5
				},
				"flavor": "The jutting limbs are very helpful for household maintenance"
			},
			{
				"id": "clockworkexpansion2",
				"name": "clockwork expansion",
				"desc": "Expand the clockwork home with additional materials",
				"require": "g.machinacreation>=5&&g.clockworkexpansion>=2",
				"max": 2,
				"cost": {
					"machinae": 20
				},
				"mod": {
					"clockworkhome.mod.space.max": 10
				},
				"flavor": "The moving floors really cut down on foot traffic"
			},
			{
				"id": "clockworkexpansion3",
				"name": "clockwork expansion",
				"desc": "Expand the clockwork home with additional materials",
				"require": "g.automatasculpting>=5&&g.clockworkexpansion2>=2",
				"max": 2,
				"cost": {
					"automatas": 20
				},
				"mod": {
					"clockworkhome.mod.space.max": 15
				},
				"flavor": "The home anticipates your wants and needs"
			},
			{
				"id": "clockworkexpansione",
				"name": "endless expansion",
				"desc": "More...",
				"require": "g.clockworkexpansion3>=2",
				"max": 500,
				"cost": {
					"puppets": "20+g.clockworkexpansione||0",
					"machinae": "20+g.clockworkexpansione||0",
					"automatas": "20+g.clockworkexpansione||0"
				},
				"mod": {
					"clockworkhome.mod.space.max": 2,
					"automatas.max": 1,
					"puppets.max": 1,
					"machinae.max": 1,
					"yurisexpander.convert.input.puppets": 0.00028,
					"yurisexpander.convert.input.machinae": 0.00028,
					"yurisexpander.convert.input.automatas": 0.00028
				},
				"flavor": "Why stop?"
			},
			{
				"id": "strongstrings",
				"name": "puppet strings",
				"desc": "Buy some extra-strength strings for your puppetry needs",
				"require": "g.puppetry>=5",
				"max": 2,
				"cost": {
					"gold": 400,
					"research": 250
				},
				"mod": {
					"puppetry.max": 1
				},
				"flavor": "You are the one in control"
			},
			{
				"id": "ebonwoodsupply",
				"name": "ebonwood supply",
				"desc": "Procure a supply of ebonwood to strengthen your puppets",
				"require": "g.puppetry>=9",
				"max": 1,
				"cost": {
					"gold": 1200,
					"research": 500
				},
				"mod": {
					"puppetry.max": 1,
					"minions.puppet.hp.max": 5,
					"minions.puppet.attack.damage": 5
				},
				"flavor": "The dark coloring is handy for assasinations"
			},
			{
				"id": "runicreinforcement",
				"name": "runic reinforcement",
				"desc": "Carve the runes of strength and protection into your puppets",
				"require": "g.puppeteer>0&&g.runelore>=3",
				"max": 1,
				"cost": {
					"runestones": 20,
					"research": 5000
				},
				"mod": {
					"puppetry.max": 1,
					"minions.puppet.hp.max": "20%",
					"minions.puppet.attack.damage": "20%"
				},
				"flavor": "The faint glow of the runes looks quite striking"
			},
			{
				"id": "proxies",
				"name": "puppet proxies",
				"desc": "Throw your voice and will through specially-made puppets",
				"require": "g.puppetry>=5",
				"max": 1,
				"cost": {
					"gold": 300,
					"research": 250
				},
				"mod": {
					"stamina.rate": 0.1,
					"vigor.rate": 0.01
				},
				"flavor": "Walking around is for fools"
			},
			{
				"id": "proxies2",
				"name": "proxy amplification",
				"desc": "Use your puppet proxies to amplify your memory",
				"require": "g.puppetry>=8",
				"max": 1,
				"cost": {
					"gold": 500,
					"research": 750,
					"managem": 15
				},
				"mod": {
					"spelllist.max": 10
				}
			},
			{
				"id": "puppetspies",
				"name": "puppet spies",
				"desc": "Nobody would notice",
				"require": "g.puppeteer>0",
				"max": 1,
				"cost": {
					"gold": 500,
					"research": 500,
					"airgem": 5
				},
				"mod": {
					"composure.max": 2
				}
			},
			{
				"id": "clockworkbutler",
				"name": "clockwork butler",
				"desc": "Serves you tea, scones and books.",
				"require": "g.machinacreation>=5",
				"max": 1,
				"cost": {
					"gold": 3000,
					"research": 2500
				},
				"mod": {
					"stamina.rate": 0.1,
					"vigor.rate": 0.01
				},
				"flavor": "A remarkably efficient servant"
			},
			{
				"id": "precisionengineering",
				"name": "precision engineering",
				"desc": "Precision to the millimeter.",
				"require": "g.machinacreation>=5",
				"max": 1,
				"cost": {
					"gold": 4000,
					"research": 1500
				},
				"mod": {
					"machinacreation.max": 2,
					"minions.machina.hp.max": 5,
					"minions.machina.attack.damage": 10
				},
				"flavor": "A layer of polish"
			},
			{
				"id": "lubricant",
				"name": "oil of slipping",
				"desc": "Adapt a common magical item as a lubricant for your machinae.",
				"require": "g.machinacreation>=7",
				"max": 1,
				"cost": {
					"gold": 2000,
					"research": 4500
				},
				"mod": {
					"machinacreation.max": 2,
					"assemblemachina.length": -5,
					"minions.machina.speed": 3
				},
				"flavor": "Comes in handy in multiple situations"
			},
			{
				"id": "autoappraiser",
				"name": "automated appraiser",
				"desc": "Some gems are more than what they look like",
				"require": "g.mechanist>0",
				"max": 1,
				"cost": {
					"gold": 5000,
					"research": 7500,
					"gems": 50,
					"managem": 25,
					"firegem": 25,
					"airgem": 25,
					"watergem": 25,
					"spiritgem": 25,
					"earthgem": 25,
					"naturegem": 25
				},
				"convert": {
					"input": {
						"gems": 0.05
					},
					"output": {
						"effect": {
							"elementalgems": 0.01
						}
					}
				}
			},
			{
				"id": "autominer",
				"name": "automated miner",
				"desc": "Greedily delve deeper",
				"require": "g.machinacreation>=9",
				"max": 2,
				"cost": {
					"gold": 5000,
					"research": 7500,
					"gems": 50
				},
				"mod": {
					"gems.rate": 0.05
				}
			},
			{
				"id": "algorithms",
				"name": "efficient algorithms",
				"desc": "Efficient instructions for best performance",
				"require": "g.mechanist>0",
				"max": 1,
				"cost": {
					"gold": 500,
					"research": 10000,
					"tomes": 100,
					"codices": 300
				},
				"mod": {
					"autoappraiser.max": 1,
					"clockworkbutler.max": 1,
					"proxies2.max": 1,
					"autominer.max": 2
				}
			},
			{
				"id": "automatalab",
				"name": "automated laboratory",
				"desc": "A thinking, living place of research",
				"require": "g.automatasculpting>=5",
				"max": 1,
				"cost": {
					"gold": 30000,
					"research": 25000,
					"automatas": 30
				},
				"mod": {
					"research.rate": 50,
					"lore.rate": "100+50%",
					"history.rate": "100+50%",
					"languages.rate": "100+50%",
					"charms.rate": "100+50%"
				},
				"flavor": "A most singular enterprise"
			},
			{
				"id": "automatastudy",
				"name": "automata studies",
				"desc": "Spend time researching the secrets of the mind",
				"require": "g.automatasculpting>=5",
				"max": 5,
				"cost": {
					"research": 50000,
					"tomes": 150,
					"codices": 800
				},
				"mod": {
					"automatasculpting.max": 1
				},
				"flavor": "Hard work hardly pays"
			},
			{
				"id": "autoagents",
				"name": "automata agents",
				"desc": "Agents capable of independent completion of any desired task",
				"require": "g.automatasculpting>=10",
				"lock": "timespiral",
				"max": 1,
				"cost": {
					"automatas": 50,
					"runestones": 100,
					"firerune": 50,
					"airrune": 50,
					"earthrune": 50,
					"waterrune": 50,
					"timerune": 3,
					"sindel": 5
				},
				"mod": {
					"runner.max": 1
				}
			},
			{
				"id": "automatamastery",
				"name": "automata mastery",
				"desc": "A complete mastery over all things mechanical",
				"require": "g.mechamancer>0",
				"max": 1,
				"cost": {
					"gold": 25000,
					"research": 50000,
					"tomes": 250,
					"codices": 1000
				},
				"mod": {
					"automatasculpting.max": 3,
					"machinacreation.max": 5,
					"puppetry.max": 5
				}
			},
			{
				"id": "sculptingmastery",
				"name": "mastery of form",
				"desc": "Learn the deepest secrets of shaping",
				"require": "g.mechamancer>0",
				"max": 1,
				"cost": {
					"gold": 15000,
					"research": 40000,
					"spiritgem": 200,
					"gems": 300
				},
				"mod": {
					"assembleautomata.result.automatas": 1,
					"automataautomation.convert.output.effect.automatas": 0.01,
					"assembleautomata.length": -5
				}
			}
		],
		"spells": [
			{
				"id": "puppetrepair",
				"name": "mend wood",
				"level": 10,
				"only": "puppet",
				"school": "animation",
				"desc": "Mend a broken puppet.",
				"require": "puppeteer",
				"tags": "rez",
				"buy": {
					"research": 500,
					"puppets": 5
				},
				"cost": {
					"puppets": 3
				}
			},
			{
				"id": "machinarepair",
				"name": "repair machina",
				"level": 20,
				"only": "machina",
				"school": "animation",
				"desc": "Repair a wrecked machina.",
				"require": "mechanist",
				"tags": "rez",
				"buy": {
					"research": 8000,
					"machinae": 10
				},
				"cost": {
					"machinae": 3
				}
			},
			{
				"id": "automatarepair",
				"name": "tune automata",
				"level": 30,
				"only": "automata",
				"school": "animation",
				"desc": "Re-tune a discordant automata.",
				"require": "mechamancer",
				"tags": "rez",
				"buy": {
					"research": 8000,
					"automatas": 20
				},
				"cost": {
					"automatas": 3
				}
			},
			{
				"id": "prismaticmissile",
				"name": "prismatic missile",
				"level": 15,
				"school": "mana",
				"require": "g.magiphysics>=5",
				"desc": "A burst of chaotic magic inflicting damage to enemies.",
				"buy": {
					"research": 6000,
					"tomes": 40
				},
				"at": {
					"25": {
						"attack.hits.damage.max": 1
					},
					"100": {
						"attack.hits.tohit": 1,
						"attack.hits.damage.min": 1
					}
				},
				"cost": {
					"mana": 7
				},
				"attack": {
					"kind": "mana",
					"hits": [
						{
							"damage": "2~3",
							"kind": "mana",
							"tohit": -2
						},
						{
							"damage": "2~3",
							"kind": "fire",
							"tohit": -2
						},
						{
							"damage": "2~3",
							"kind": "water",
							"tohit": -2
						},
						{
							"damage": "2~3",
							"kind": "nature",
							"tohit": -2
						},
						{
							"damage": "2~3",
							"kind": "air",
							"tohit": -2
						},
						{
							"damage": "2~3",
							"kind": "chaos",
							"tohit": -2
						},
						{
							"damage": "2~3",
							"kind": "earth",
							"tohit": -2
						},
						{
							"damage": "2~3",
							"kind": "shadow",
							"tohit": -2
						},
						{
							"damage": "2~3",
							"kind": "light",
							"tohit": -2
						},
						{
							"damage": "2~3",
							"kind": "spirit",
							"tohit": -2
						}
					]
				}
			},
			{
				"id": "mk_puppet",
				"name": "animate puppet attacker",
				"school": "animation",
				"require": "g.puppetry>=5",
				"level": 1,
				"buy": {
					"research": 500,
					"puppets": 5
				},
				"cost": {
					"puppets": 5,
					"spirit": 10
				},
				"summon": [
					{
						"id": "puppetattacker",
						"count": 1,
						"max": 5
					}
				]
			},
			{
				"id": "mk_charger",
				"name": "assemble mecha-charger",
				"school": "animation",
				"require": "g.machinacreation>=5",
				"level": 1,
				"buy": {
					"research": 8000,
					"machinae": 10
				},
				"cost": {
					"machinae": 5
				},
				"summon": [
					{
						"id": "mechacharger",
						"count": 1,
						"max": 2
					}
				]
			},
			{
				"id": "mk_autoslayer",
				"name": "shape autoslayer",
				"school": "animation",
				"require": "g.automatasculpting>=5",
				"level": 1,
				"buy": {
					"research": 8000,
					"automatas": 20
				},
				"cost": {
					"automatas": 5
				},
				"summon": [
					{
						"id": "autoslayer",
						"count": 1,
						"max": 1
					}
				]
			},
			{
				"id": "mk_puppetdef",
				"name": "animate bulwark",
				"school": "animation",
				"desc": "A sturdy puppet lurches between you and danger.",
				"require": "g.puppetry>=5&&g.puppeteer>0",
				"level": 5,
				"buy": {
					"research": 5000,
					"puppets": 40
				},
				"cost": {
					"puppets": 5,
					"spirit": 10
				},
				"summon": [
					{
						"id": "puppetdefender",
						"count": 1,
						"max": 5
					}
				]
			},
			{
				"id": "mk_mender",
				"name": "assemble mecha-mender",
				"school": "animation",
				"require": "g.machinacreation>=5&&g.mechanist>0",
				"level": 1,
				"buy": {
					"research": 8000,
					"machinae": 10
				},
				"cost": {
					"machinae": 5
				},
				"summon": [
					{
						"id": "mechamender",
						"count": 1,
						"max": 2
					}
				]
			},
			{
				"id": "mk_autocaster",
				"name": "shape autocaster",
				"school": "animation",
				"require": "g.automatasculpting>=5&&g.mechamancer>0",
				"level": 1,
				"buy": {
					"research": 8000,
					"automatas": 20
				},
				"cost": {
					"automatas": 5
				},
				"summon": [
					{
						"id": "autocaster",
						"count": 1,
						"max": 1
					}
				]
			},
			{
				"id": "mk_clockcrow",
				"name": "assemble mechanical crow",
				"school": "animation",
				"require": "g.corivar_trophy>0&&g.tier0>0&&g.puppetry>=1",
				"level": 1,
				"buy": {
					"research": 300,
					"scrolls": 30,
					"gold": 600,
					"managem": 10,
					"puppets": 10
				},
				"cost": {
					"puppets": 5
				},
				"summon": [
					{
						"id": "clockcrow",
						"count": 1,
						"max": 5
					}
				]
			},
			{
				"id": "mk_clockservant",
				"name": "assemble automata servant",
				"school": "animation",
				"require": "g.magiphysics>=5&&g.machinacreation>=5&&g.corivar_trophy>0",
				"level": 2,
				"buy": {
					"research": 7000,
					"scrolls": 60,
					"gold": 500,
					"gems": 30,
					"puppets": 20,
					"machinae": 12
				},
				"cost": {
					"automatas": 1
				},
				"summon": [
					{
						"id": "clockservant",
						"count": 1,
						"max": 3
					}
				]
			},
			{
				"id": "mk_clockknight",
				"name": "assemble brass knight",
				"school": "animation",
				"require": "g.magiphysics>=5&&g.machinacreation>=8&&g.corivar_trophy>0",
				"level": 4,
				"buy": {
					"research": 9000,
					"scrolls": 100,
					"gold": 3500,
					"gems": 60,
					"automatas": 3,
					"machinae": 12,
					"puppets": 20
				},
				"cost": {
					"automatas": 1
				},
				"summon": [
					{
						"id": "clockknight",
						"count": 1,
						"max": 3
					}
				]
			},
			{
				"id": "mon_mk_clockknight",
				"name": "assemble elite brass knight",
				"school": "animation",
				"require": "g.magiphysics>=9999&&g.machinacreation>=8&&g.corivar_trophy>0",
				"level": 4,
				"summon": [
					{
						"id": "clockknight_elite",
						"count": 1,
						"max": 3
					}
				]
			},
			{
				"id": "mon_mk_clockmage",
				"name": "assemble elite auto mage",
				"school": "animation",
				"require": "g.magiphysics>=9999&&g.machinacreation>=8&&g.corivar_trophy>0",
				"level": 4,
				"summon": [
					{
						"id": "clockmage_elite",
						"count": 1,
						"max": 3
					}
				]
			}
		],
		"homes": [
			{
				"id": "clockworkhome",
				"name": "clockwork home",
				"desc": "A house of gears and levers, constantly adjusting to the requirements of its occupant.",
				"cost": {
					"research": 3000,
					"gold": 3000,
					"codices": 50
				},
				"require": "(g.puppeteer+g.mechanist+g.mechamancer)>0",
				"mod": {
					"space.max": 50,
					"minions.max": 50,
					"puppetry.max": 1,
					"machinacreation.max": 1,
					"automatasculpting.max": 1,
					"puppets.max": 20,
					"machinae.max": 20,
					"automatas.max": 20
				}
			}
		],
		"furniture": [
			{
				"id": "puppetworkshop",
				"name": "puppet-making workshop",
				"desc": "A specialized workshop for efficiently producing puppets.",
				"require": "g.puppetry>=7",
				"max": 2,
				"cost": {
					"gold": 150,
					"research": 250,
					"arcana": 3
				},
				"mod": {
					"assemblepuppet.cost.gold": 10,
					"assemblepuppet.cost.research": 10,
					"assemblepuppet.result.puppets": 0.5,
					"puppetautomation.convert.input.gold": -0.05,
					"puppetautomation.convert.input.research": -0.05,
					"puppetautomation.convert.input.spiritgem": -0.0025,
					"space": 5
				}
			},
			{
				"id": "puppetautomation",
				"name": "puppet assembly line",
				"desc": "A dedicated assembly line for automated production of puppets.",
				"require": "g.puppetry>=9",
				"max": 2,
				"cost": {
					"gold": 250,
					"research": 250,
					"spiritgem": 3
				},
				"mod": {
					"space": 5
				},
				"convert": {
					"input": {
						"spiritgem": 0.01,
						"gold": 0.5,
						"research": 0.5
					},
					"output": {
						"effect": {
							"puppets": 0.01
						}
					}
				}
			},
			{
				"id": "machinagarage",
				"name": "machina workshop",
				"desc": "A place to tinker with your machinae.",
				"require": "g.machinacreation>=7",
				"tags": "workspace",
				"max": 2,
				"cost": {
					"gold": 1500,
					"research": 1000,
					"gems": 15
				},
				"mod": {
					"crafting.max": 0.5,
					"crafting.rate": "2.5%",
					"assemblemachina.cost.gold": 50,
					"assemblemachina.cost.research": 75,
					"assemblemachina.result.machinae": 0.5,
					"machinaautomation.convert.input.gold": -0.5,
					"machinaautomation.convert.input.research": -0.75,
					"machinaautomation.convert.input.gems": -0.01,
					"space": 7
				}
			},
			{
				"id": "machinaautomation",
				"name": "machina assembly",
				"desc": "A complex mechanism for automating the production of machinae.",
				"require": "g.machinacreation>=9",
				"max": 2,
				"cost": {
					"gold": 2500,
					"research": 3000,
					"puppets": 20,
					"gems": 50
				},
				"mod": {
					"space": 7
				},
				"convert": {
					"input": {
						"gems": 0.05,
						"gold": 2.5,
						"research": 4
					},
					"output": {
						"effect": {
							"machinae": 0.01
						}
					}
				}
			},
			{
				"id": "shapinglab",
				"name": "shaping laboratory",
				"desc": "A facility for efficiently growing mind-crystals and pre-formed automata bodies.",
				"tags": "workspace",
				"require": "mechamancer",
				"max": 2,
				"cost": {
					"gold": 5000,
					"research": 5000,
					"gems": 30
				},
				"mod": {
					"assembleautomata.cost.gold": -300,
					"assembleautomata.cost.research": -300,
					"assembleautomata.cost.runestones": -2.5,
					"automataautomation.convert.input.gold": -2.5,
					"automataautomation.convert.input.research": -2.5,
					"automataautomation.convert.input.bloodgem": -0.025,
					"automataautomation.convert.input.spiritgem": -0.025,
					"automataautomation.convert.input.runestones": -0.025,
					"space": 10
				},
				"flavor": "This was a triumph. I'm making a note here, 'Huge Success.'"
			},
			{
				"id": "automataautomation",
				"name": "automata vats",
				"desc": "Rows upon rows of crystal-growing vats, shaping automata according to your parameters.",
				"require": "g.automatasculpting>=7",
				"max": 2,
				"cost": {
					"gold": 5000,
					"research": 5000,
					"gems": 30
				},
				"mod": {
					"space": 10
				},
				"convert": {
					"input": {
						"gold": 20,
						"research": 20,
						"bloodgem": 0.2,
						"spiritgem": 0.2,
						"runestones": 0.15
					},
					"output": {
						"effect": {
							"automatas": 0.01
						}
					}
				}
			},
			{
				"id": "finesorting_elements",
				"name": "refined elemental sorting station",
				"desc": "Allows automatic appraiser to produce elemental gems more efficiently.",
				"require": "g.finesorting>0",
				"max": 10,
				"cost": {
					"fineparts": 1
				},
				"mod": {
					"autoappraiser.convert.input.gems": 0.01,
					"autoappraiser.convert.output.effect.elementalgems": 0.001,
					"finesorting_elements.cost.fineparts": 2,
					"finesorting_esoteric.cost.fineparts": 1,
					"fineparts.max": 2,
					"space": 2
				}
			},
			{
				"id": "finesorting_esoteric",
				"name": "refined esoteric sorting station",
				"desc": "Allows automatic appraiser to produce certain primal gems.",
				"require": "g.finesorting>0",
				"max": 10,
				"cost": {
					"fineparts": 2
				},
				"mod": {
					"autoappraiser.convert.input.gems": 0.01,
					"autoappraiser.convert.output.effect.lightgem": 0.001,
					"autoappraiser.convert.output.effect.shadowgem": 0.001,
					"autoappraiser.convert.output.effect.spiritgem": 0.001,
					"finesorting_elements.cost.fineparts": 1,
					"finesorting_esoteric.cost.fineparts": 2,
					"fineparts.max": 2,
					"space": 2
				}
			},
			{
				"id": "finesorting_recycling",
				"name": "refined sorting recycling station",
				"desc": "Allows automatic appraiser to produce elemental gems more efficiently.",
				"require": "g.finesorting>0",
				"max": 5,
				"cost": {
					"fineparts": 1
				},
				"mod": {
					"autoappraiser.convert.input.gems": -0.004,
					"finesorting_elements.mod.autoappraiser.convert.input.gems": -0.001,
					"finesorting_esoteric.mod.autoappraiser.convert.input.gems": -0.001,
					"finesorting_recycling.cost.fineparts": 1,
					"fineparts.max": 1,
					"space": 2
				}
			}
		],
		"resources": [
			{
				"id": "puppets",
				"desc": "Easily controlled, yet fundamentally inert.",
				"group": "puppets",
				"max": 20,
				"flavor": "A skilled user could put on a marvellous show."
			},
			{
				"id": "machinae",
				"name": "machinae",
				"desc": "Towering hulks of metal, ready to do their master's bidding.",
				"group": "puppets",
				"max": 20,
				"flavor": "B33P B00P."
			},
			{
				"id": "automatas",
				"name": "automata",
				"desc": "Constructs of translucent crystal; they possess a pristine intellect for learning.",
				"group": "puppets",
				"max": 20,
				"flavor": "It's not smarter than you, surely."
			}
		],
		"monsters": [
			{
				"id": "puppetattacker",
				"tags": "t_puppet",
				"name": "puppet aggressor",
				"level": 10,
				"kind": "puppet",
				"noproc": true,
				"hp": 75,
				"tohit": 7.5,
				"dodge": 5,
				"defense": 7,
				"attack": {
					"name": "stab",
					"kind": "pierce",
					"damage": "10~20"
				}
			},
			{
				"id": "mechacharger",
				"tags": "t_machina",
				"name": "mecha-charger",
				"level": 20,
				"kind": "machina",
				"noproc": true,
				"hp": 500,
				"tohit": 15,
				"dodge": 10,
				"defense": 30,
				"attack": [
					{
						"hits": [
							{
								"name": "charge",
								"tohit": 3,
								"targets": "enemies",
								"damage": "60~70"
							},
							{
								"name": "recoil",
								"harmless": true,
								"nodefense": true,
								"targets": "self",
								"damage": 50
							}
						]
					},
					{
						"name": "rewind",
						"targets": "self",
						"result": {
							"hp": 50
						},
						"dot": {
							"duration": 2,
							"mod": {
								"self.defense": 25
							}
						}
					}
				]
			},
			{
				"id": "autoslayer",
				"tags": "t_automata",
				"name": "autoslayer",
				"level": 30,
				"kind": "automata",
				"noproc": true,
				"hp": 700,
				"tohit": 30,
				"dodge": 20,
				"defense": 50,
				"attack": [
					{
						"name": "bleed dry",
						"targets": "enemies",
						"dot": {
							"kind": "bleed",
							"duration": 20,
							"damage": 10
						}
					},
					{
						"name": "slice",
						"tohit": 1,
						"kind": "slash",
						"damage": "25~35",
						"repeathits": 2
					},
					{
						"name": "dice",
						"tohit": 3,
						"kind": "slash",
						"damage": "20~25",
						"repeathits": 2
					},
					{
						"name": "mince",
						"tohit": 2,
						"kind": "slash",
						"damage": "20~26",
						"repeathits": 3
					},
					{
						"name": "chop",
						"tohit": -2,
						"kind": "slash",
						"damage": "70~90"
					},
					{
						"name": "stab",
						"tohit": 5,
						"kind": "pierce",
						"damage": "30~50"
					},
					{
						"name": "mash",
						"tohit": 2,
						"kind": "blunt",
						"damage": "0~50",
						"repeathits": 3
					},
					{
						"name": "recover",
						"targets": "self",
						"result": {
							"hp": 150
						}
					}
				]
			},
			{
				"id": "puppetdefender",
				"tags": "t_puppet",
				"name": "puppet bulwark",
				"level": 10,
				"kind": "puppet",
				"noproc": true,
				"hp": 300,
				"tohit": 7.5,
				"dodge": 5,
				"defense": 20,
				"attack": [
					{
						"name": "bash",
						"kind": "blunt",
						"damage": "10~15"
					},
					{
						"name": "protect",
						"targets": "ally",
						"dot": {
							"duration": 15,
							"mod": {
								"self.defense": 5
							}
						}
					},
					{
						"name": "fortify",
						"targets": "self",
						"result": {
							"hp": 20
						},
						"dot": {
							"flags": "taunt,defensive",
							"mod": {
								"self.defense": 10
							}
						}
					}
				]
			},
			{
				"id": "mechamender",
				"tags": "t_machina",
				"name": "mecha-mender",
				"noproc": true,
				"level": 20,
				"kind": "machina",
				"hp": 500,
				"tohit": 15,
				"dodge": 10,
				"defense": 100,
				"attack": [
					{
						"name": "mend",
						"targets": "ally",
						"targetstats": {
							"stat": "hp",
							"highest": false,
							"usepercentage": true
						},
						"harmless": true,
						"result": {
							"hp": 40
						}
					},
					{
						"name": "recover",
						"targets": "allies",
						"harmless": true,
						"dot": {
							"duration": 10,
							"effect": {
								"self.hp": 4
							}
						}
					},
					{
						"name": "align",
						"targets": "ally",
						"harmless": true,
						"dot": {
							"duration": 10,
							"mod": {
								"self.tohit": 2
							}
						}
					}
				]
			},
			{
				"id": "autocaster",
				"tags": "t_automata",
				"name": "autocaster",
				"level": 30,
				"kind": "automata",
				"noproc": true,
				"hp": 500,
				"tohit": 30,
				"dodge": 20,
				"defense": 60,
				"regen": 10,
				"attack": [
					{
						"name": "winter's chill",
						"targets": "enemies",
						"dot": {
							"kind": "water",
							"duration": 10,
							"damage": 20
						}
					},
					{
						"name": "flamestrike",
						"targets": "enemies",
						"dot": {
							"kind": "fire",
							"duration": 10,
							"damage": 20
						}
					},
					{
						"name": "buffeting winds",
						"targets": "enemies",
						"dot": {
							"kind": "air",
							"duration": 10,
							"damage": 20
						}
					},
					{
						"name": "trembling earth",
						"targets": "enemies",
						"dot": {
							"kind": "earth",
							"duration": 10,
							"damage": 20
						}
					},
					{
						"name": "disengage",
						"targets": "self",
						"dot": {
							"duration": 10,
							"mod": {
								"self.defense": 25
							}
						}
					},
					{
						"name": "arcane blast",
						"kind": "mana",
						"damage": "80~200"
					},
					{
						"name": "rare air",
						"dot": {
							"%": "50%",
							"id": "silence",
							"duration": 5
						}
					},
					{
						"name": "jetstream",
						"targets": "allies",
						"dot": {
							"duration": 10,
							"mod": {
								"self.speed": 5
							}
						}
					}
				]
			},
			{
				"id": "clockservant",
				"tags": "t_automata,clockwork",
				"name": "automata servant",
				"desc": "A shining servant of the castle.",
				"level": 9,
				"kind": "automata",
				"noproc": true,
				"hp": 500,
				"defense": 25,
				"loot": {
					"managem": 1
				},
				"attack": [
					{
						"name": "tray bash",
						"kind": "blunt",
						"damage": "15~20"
					},
					{
						"name": "forgive me bow",
						"kind": "charm",
						"damage": "35~40"
					},
					{
						"name": "serve hot drink",
						"kind": "fire",
						"damage": "15~20",
						"dot": {
							"kind": "fire",
							"name": "hot drink",
							"damage": "3~5",
							"duration": 8
						}
					},
					{
						"name": "serve oil",
						"targets": "ally",
						"dot": {
							"duration": 30,
							"mod": {
								"self.speed": 5
							}
						}
					},
					{
						"name": "tray shield",
						"targets": "self",
						"result": {
							"hp": 5
						},
						"dot": {
							"duration": 10,
							"mod": {
								"self.defense": 25
							}
						}
					}
				]
			},
			{
				"id": "clocksentry",
				"tags": "t_automata,clockwork",
				"name": "crossbow sentry",
				"desc": "A ranged guard firing brass arrows.",
				"level": 10,
				"kind": "automata",
				"noproc": true,
				"hp": 300,
				"defense": 5,
				"spells": "mk_clockcrow,perfectstrike",
				"loot": {
					"managem": "1~2"
				},
				"attack": [
					{
						"name": "long shot",
						"kind": "pierce",
						"damage": "50~60"
					},
					{
						"name": "repeater",
						"kind": "slash",
						"damage": "30~45"
					},
					{
						"name": "oiled arrow",
						"kind": "blunt",
						"damage": "25~30",
						"dot": {
							"damage": "5~12",
							"duration": 10
						}
					},
					{
						"name": "retune crossbow",
						"targets": "self",
						"result": {
							"hp": 5
						},
						"dot": {
							"duration": 5,
							"mod": {
								"self.defense": -5,
								"self.speed": 5
							}
						}
					}
				]
			},
			{
				"id": "clockknight",
				"tags": "t_automata,clockwork",
				"name": "brass knight",
				"desc": "A shining knight in brass armor.",
				"level": 11,
				"kind": "automata",
				"noproc": true,
				"hp": 300,
				"defense": 45,
				"spells": "whirl3,perfectstrike",
				"loot": {
					"managem": "1~2"
				},
				"attack": [
					{
						"name": "hour hand slash",
						"kind": "slash",
						"damage": "50~60"
					},
					{
						"name": "second hand pierce",
						"kind": "pierce",
						"damage": "55~70"
					},
					{
						"name": "minute hand maul",
						"kind": "blunt",
						"damage": "35~50",
						"dot": {
							"kind": "bleed",
							"name": "bleeding time",
							"damage": "15~25",
							"duration": 5
						}
					},
					{
						"name": "commanding presence",
						"targets": "ally",
						"dot": {
							"duration": 30,
							"mod": {
								"self.speed": 5
							}
						}
					},
					{
						"name": "realign shield",
						"targets": "self",
						"result": {
							"hp": 5
						},
						"dot": {
							"duration": 30,
							"mod": {
								"self.defense": 45
							}
						}
					}
				]
			},
			{
				"id": "clockdicer",
				"tags": "t_automata,clockwork",
				"name": "automata chef",
				"desc": "An automated cook with sharp knives and a hardened brass shell, looking to make you the next meal.",
				"level": 13,
				"kind": "automata",
				"spells": "whirl3,perfectstrike",
				"noproc": true,
				"hp": 300,
				"defense": 15,
				"loot": {
					"herbs": "5~6",
					"gems": 1
				},
				"attack": [
					{
						"name": "season wounds",
						"kind": "charm",
						"damage": "15~20"
					},
					{
						"name": "brass slashes",
						"kind": "slash",
						"damage": "35~40",
						"dot": {
							"kind": "bleed",
							"name": "precise cuts",
							"damage": "10~25",
							"duration": 10
						}
					},
					{
						"name": "blowtorch",
						"kind": "fire",
						"damage": "35~40",
						"dot": {
							"kind": "fire",
							"name": "oil flames",
							"damage": "20~35",
							"duration": 5
						}
					},
					{
						"name": "serve oil",
						"targets": "ally",
						"dot": {
							"duration": 30,
							"mod": {
								"self.speed": 5
							}
						}
					},
					{
						"name": "self serving",
						"targets": "self",
						"result": {
							"hp": 100
						},
						"dot": {
							"duration": 60,
							"mod": {
								"self.defense": 10,
								"self.speed": 10
							}
						}
					}
				]
			},
			{
				"id": "clockscout",
				"tags": "t_automata,clockwork",
				"name": "copper scout",
				"desc": "A fast moving, green cloaked rogue, looking to call out your every movement.",
				"level": 7,
				"kind": "automata",
				"noproc": true,
				"hp": 100,
				"defense": 5,
				"spells": "whirl3,perfectstrike,downswinging",
				"loot": {
					"gems": "1~2"
				},
				"attack": [
					{
						"name": "pipe bash",
						"kind": "blunt",
						"damage": "15~20"
					}
				]
			},
			{
				"id": "clockcrow",
				"tags": "t_puppet,clockwork",
				"name": "mechanical crow",
				"desc": "A mechanical crow-like contraption, it watches with gemstone eyes.",
				"level": 9,
				"kind": "puppet",
				"noproc": true,
				"hp": 80,
				"tohit": 20,
				"defense": 10,
				"loot": {
					"gems": "50%"
				},
				"attack": [
					{
						"name": "sharp peck",
						"kind": "blunt",
						"damage": "10~15"
					},
					{
						"name": "tracking gaze",
						"kind": "charm",
						"damage": "5~8",
						"dot": {
							"duration": 20,
							"mod": {
								"self.dodge": -6,
								"self.speed": -3
							}
						}
					}
				]
			},
			{
				"id": "clockmage",
				"tags": "t_automata,clockwork",
				"name": "automated mage",
				"desc": "A collection of runes, gems and brass able to cast a few spells.",
				"level": 12,
				"kind": "automata",
				"noproc": true,
				"hp": 500,
				"defense": 25,
				"spells": "doublestrike,lightning,massjinx,magebolt,lightspear2,prismaticspray2,quell",
				"loot": {
					"managem": 1,
					"gems": 1,
					"runestones": "25%"
				},
				"attack": [
					{
						"name": "fling brass",
						"kind": "blunt",
						"damage": "35~50"
					}
				]
			},
			{
				"id": "clockwork_core",
				"tags": "t_automata,clockwork",
				"name": "corivar's castle core",
				"desc": "A large mobile core that darts around the castle reshaping and remaking its subjects.",
				"level": 22,
				"kind": "automata",
				"noproc": true,
				"hp": 1000,
				"defense": 20,
				"speed": -1,
				"spells": "massjinx,quell,mk_clockservant,mk_clockknight,mk_clockcrow",
				"loot": {
					"managem": 5,
					"gems": 5,
					"runestones": 3,
					"gold": 250
				},
				"attack": [
					{
						"name": "blunt brass arrow",
						"kind": "blunt",
						"damage": "20~30"
					}
				]
			},
			{
				"id": "clockmage_elite",
				"tags": "t_automata,clockwork",
				"name": "pristine automated mage",
				"desc": "A collection of runes, gems and brass capable of dangerous spellcasting.",
				"level": 12,
				"kind": "automata",
				"noproc": true,
				"hp": 600,
				"defense": 30,
				"chaincast": 1,
				"spells": "doublestrike,lightning,massjinx,magebolt,lightspear2,prismaticspray2,quell",
				"loot": {
					"runestones": 1
				},
				"attack": [
					{
						"name": "brass shrapnel",
						"kind": "blunt",
						"damage": "40~55"
					}
				]
			},
			{
				"id": "clockknight_elite",
				"tags": "t_automata,clockwork",
				"name": "pristine brass knight",
				"desc": "A shining knight in brass armor. Not a mark spoils its features",
				"level": 11,
				"kind": "automata",
				"noproc": true,
				"hp": 700,
				"defense": 55,
				"spells": "whirl3,perfectstrike",
				"loot": {
					"managem": 3
				},
				"attack": [
					{
						"name": "hour hand slash",
						"kind": "slash",
						"damage": "60~70"
					},
					{
						"name": "second hand pierce",
						"kind": "pierce",
						"damage": "60~75"
					},
					{
						"name": "minute hand maul",
						"kind": "blunt",
						"damage": "40~55",
						"dot": {
							"kind": "bleed",
							"name": "bleeding time",
							"damage": "18~30",
							"duration": 5
						}
					},
					{
						"name": "commanding presence",
						"targets": "ally",
						"dot": {
							"duration": 30,
							"mod": {
								"self.speed": 8
							}
						}
					},
					{
						"name": "realign shield",
						"targets": "self",
						"result": {
							"hp": 25
						},
						"dot": {
							"duration": 10,
							"mod": {
								"self.defense": 30
							}
						}
					}
				]
			},
			{
				"id": "clockwork_core_elite",
				"tags": "t_automata,clockwork",
				"name": "pristine castle core",
				"desc": "A supporting unit for the replica, capable of summoning and maintaining masses of reinforcements.",
				"level": 22,
				"kind": "automata",
				"noproc": true,
				"hp": 1500,
				"defense": 20,
				"speed": 15,
				"chaincast": 0.5,
				"spells": "massjinx,quell,mk_clockservant,mk_clockknight,mon_mk_clockmage",
				"loot": {
					"managem": 5,
					"gems": 5,
					"runestones": 3,
					"gold": 250
				},
				"attack": [
					{
						"name": "blunt brass arrow",
						"kind": "blunt",
						"damage": "20~30"
					},
					{
						"name": "mass repair",
						"targets": "allies",
						"harmless": true,
						"result": {
							"hp": 45
						}
					},
					{
						"name": "crackle",
						"targets": "enemies",
						"damage": "10~15",
						"harmless": true
					}
				]
			},
			{
				"id": "corivar_replica",
				"name": "corivar's replica",
				"tags": "t_automata,clockwork",
				"level": 15,
				"spells": "mon_mk_clockknight,mon_mk_clockmage,mk_clockknight,mk_clockservant",
				"chaincast": 0.25,
				"kind": "automata",
				"desc": "What stands before you is a result of hubris unimaginable, borne out of desire to achieve immortality. It thinks it's Corivar. It most certainly is not.",
				"noproc": true,
				"hp": 4000,
				"defense": 60,
				"dodge": 10,
				"tohit": 25,
				"speed": 25,
				"attack": [
					{
						"name": "suppress magic",
						"targets": "enemyleader",
						"harmless": true,
						"dot": {
							"id": "silence",
							"duration": 60
						}
					},
					{
						"name": "crackle",
						"targets": "enemies",
						"damage": "15~25",
						"harmless": true
					},
					{
						"name": "mass repair",
						"targets": "allies",
						"harmless": true,
						"result": {
							"hp": 60
						}
					}
				],
				"loot": {
					"brassbauble": 1
				}
			}
		],
		"classes": [
			{
				"id": "puppeteer",
				"desc": "Assemble and control mechanical minions.",
				"tags": "t_tier1",
				"require": "g.tier0>0&&g.puppetry>=5",
				"cost": {
					"research": 700,
					"arcana": 10,
					"gold": 500
				},
				"mod": {
					"tier1": true,
					"puppetry.max": 2,
					"minions.keep": "puppet",
					"magicalanimation.max": 1,
					"allies.max": 5,
					"clockworkhome.mod.space.max": 50,
					"puppetworkshop.max": 2,
					"puppetautomation.max": 2
				},
				"flavor": "No matter what, the strings would not break."
			},
			{
				"id": "mechanist",
				"name": "mechanist",
				"desc": "Steel and magic",
				"tags": "t_tier3",
				"require": "g.tier2>0&&g.machinacreation>=5&&g.tier3==0",
				"cost": {
					"research": 3000,
					"arcana": 25,
					"bloodgem": 20,
					"airgem": 20,
					"tomes": 10
				},
				"mod": {
					"tier3": true,
					"puppetry.max": 1,
					"minions.keep": "machina",
					"magicalanimation.max": 2,
					"machinacreation.max": 2,
					"allies.max": 5,
					"clockworkhome.mod.space.max": 100,
					"machinagarage.max": 2,
					"machinaautomation.max": 2
				},
				"flavor": "What is a man? An inefficient form of labor."
			},
			{
				"id": "mechamancer",
				"name": "mechamancer",
				"desc": "Master of magical constructs",
				"tags": "t_tier5",
				"require": "g.tier4>0&&g.magiphysics>=5&&g.machinacreation>=9&&(g.puppeteer+g.mechanist)>0&&g.tier5==0",
				"cost": {
					"research": 20000,
					"arcana": 27,
					"tomes": 30,
					"runestones": 30
				},
				"mod": {
					"tier5": true,
					"puppetry.max": 1,
					"magicalanimation.max": 1,
					"machinacreation.max": 2,
					"automatasculpting.max": 3,
					"minions.keep": "automata",
					"allies.max": 5,
					"clockworkhome.mod.space.max": 150,
					"shapinglab.max": 2,
					"automataautomation.max": 2
				},
				"flavor": "If you want a better future, make better people."
			}
		],
		"encounters": [
			{
				"id": "puppet_strawman",
				"name": "scarecrow",
				"desc": "A scarecrow winks at you.",
				"effect": {
					"unease": "1~2",
					"puppetry.exp": 5
				}
			},
			{
				"id": "puppet_rustedsickle",
				"name": "rusted sickle",
				"desc": "A rusted sickle lays abandoned. Curiously, it seems to have never had a handle.",
				"effect": {
					"unease": "0~2",
					"bf": "0~2",
					"puppetry.exp": 2,
					"machinacreation.exp": 2
				}
			},
			{
				"id": "puppet_farmer",
				"name": "chatty farmer",
				"desc": "You barely manage to escape his endless complaints about his rich neighbor.",
				"effect": {
					"weary": "1~2",
					"rage": "1~2",
					"charms.exp": 2,
					"composure.exp": 2
				}
			},
			{
				"id": "puppet_remains",
				"name": "blood",
				"desc": "A crushed, mangled corpse of a critter lies in the fields, cut apart by an uncaring plow.",
				"effect": {
					"unease": "1~2",
					"rage": 2,
					"animals.exp": 2,
					"composure.exp": 2
				}
			},
			{
				"id": "puppet_broken",
				"name": "pile of wood?",
				"desc": "Upon closer inspection it appears to be an old, discarded puppet.",
				"effect": {
					"rage": "1~3",
					"puppetry.exp": 1
				},
				"result": {
					"puppets": "15%"
				}
			},
			{
				"id": "puppet_plow",
				"name": "automated plower",
				"desc": "A lone mechanism plows the fields for it's rich master.",
				"effect": {
					"weary": "1~3",
					"machinacreation.exp": 5
				},
				"result": {
					"herbs": "0~2"
				}
			},
			{
				"id": "puppet_soil",
				"name": "upturned soil",
				"desc": "A patch of uneven ground with the soil exposed to the elements, likely to become barren. What kind of farmer misses something like this?",
				"effect": {
					"unease": "1~3",
					"bf": "1~3",
					"earthlore.exp": 5,
					"naturelore.exp": 5
				},
				"result": {
					"herbs": "10%"
				}
			},
			{
				"id": "puppet_crystal",
				"name": "pulsating crystal",
				"desc": "An odd crystal pulses rhythmically in the darkness. .... . .-.. .-.. ---",
				"effect": {
					"weary": "1~3",
					"unease": "1~3",
					"bf": "1~3",
					"automatasculpting.exp": 5
				},
				"result": {
					"runestones": "15%"
				}
			},
			{
				"id": "puppet_scrapmachina",
				"name": "scrap pile",
				"desc": "A pile of scrap metal sits on the floor, once a useful mechanical servant",
				"effect": {
					"weary": "2~3",
					"machinacreation.exp": 1
				},
				"result": {
					"machinae": "15%"
				}
			},
			{
				"id": "puppet_scout_eyeing",
				"name": "darting figures",
				"desc": "Someone's gaze is fixed on you from a distance, from time to time they move with inhuman speed.",
				"effect": {
					"weary": "2~3",
					"madness": "1~2",
					"travel.exp": 10
				},
				"result": {
					"herbs": "0~2"
				}
			},
			{
				"id": "puppet_mechanical_locks",
				"name": "complex locks",
				"desc": "A formerly-locked gate, the rusted and broken remains of the locks on the ground. Laid open for all to see, they reveal mechanisms that were once brilliantly complex.",
				"effect": {
					"weary": "2~3"
				},
				"result": {
					"machinacreation.exp": 50
				}
			},
			{
				"id": "puppet_mechanical_house",
				"name": "far-off castle",
				"desc": "A large castle in the distance, is it a trick of the eye or are the windows themselves moving?",
				"level": 2,
				"effect": {
					"weary": "1~2",
					"bf": "2~3"
				},
				"result": {
					"herbs": "0~2"
				}
			},
			{
				"id": "puppet_roads",
				"name": "clear pathing",
				"desc": "Small roads even out here are clear of any growth. Good for getting some reading done while you travel.",
				"level": 2,
				"effect": {
					"bf": "1~2"
				},
				"result": {
					"runner.skillprogress": 350
				}
			},
			{
				"id": "puppet_fallen_scout",
				"name": "rusted scrap pile",
				"desc": "A corroded green pile of scrap with a gemstone in the wreck. Did it just try and move?",
				"effect": {
					"weary": "2~3",
					"unease": "1~3"
				},
				"result": {
					"gems": 1
				}
			},
			{
				"id": "puppet_deadanimal",
				"name": "rotten corpse",
				"desc": "A brutally butchered animal, left to rot. Who would do this in the middle of nowhere?",
				"effect": {
					"rage": "2~3",
					"unease": "1~3"
				},
				"result": {
					"bones": "1~3",
					"skulls": "60%"
				}
			},
			{
				"id": "puppet_unmaintainedgrowth",
				"name": "overrun gardens",
				"desc": "Large patches of plants tangle around rusted scrap halting its movement.",
				"level": 2,
				"effect": {
					"weary": "2~3",
					"unease": "1~3",
					"herbalism.exp": 15
				},
				"result": {
					"naturegem": "30%",
					"herbs": "5~8"
				}
			},
			{
				"id": "puppet_roamingtender",
				"name": "landscapers",
				"desc": "Automated laborers seen at a distance still maintain the closest grounds of the castle.",
				"effect": {
					"bf": "2~3",
					"naturelore.exp": 5
				},
				"result": {
					"herbs": "1~2"
				}
			},
			{
				"id": "puppet_fazbitservants",
				"name": "fazbit's helpers",
				"desc": "Still maintaining the workshop after centuries... as much as they can",
				"effect": {
					"weary": "1~3",
					"machinacreation.exp": 3,
					"puppetry.exp": 3
				},
				"result": {
					"machinae": "5%",
					"puppets": "5%"
				}
			}
		],
		"rares": [
			{
				"id": "loosecog",
				"name": "loose cog",
				"desc": "Large enough to accomodate a finger.",
				"unique": true,
				"level": 1,
				"armor": 2,
				"type": "armor",
				"kind": "ring",
				"slot": "fingers",
				"enchants": 7,
				"alter": {
					"mod": {
						"puppetry.max": 1,
						"puppetry.rate": 0.3
					}
				}
			},
			{
				"id": "brassbauble",
				"name": "brass bauble",
				"type": "armor",
				"desc": "A small piece of brass, resembling a good luck charm.",
				"tags": "t_bauble",
				"unique": true,
				"level": 5,
				"enchants": 5,
				"armor": 1,
				"slot": "trinket",
				"alter": {
					"mod": {
						"allies.max": "10%",
						"minions.max": "10%"
					}
				}
			}
		],
		"locales": [
			{
				"id": "localfields",
				"name": "Village fields",
				"level": 1,
				"length": 25,
				"require": "evt_helper",
				"desc": "The nearby village's fields are vast and full of opportunity for an aspiring mage.",
				"run": {
					"stamina": 0.2
				},
				"result": {
					"arcana": 0.1,
					"gold": 5
				},
				"loot": {
					"herbs": "1~3",
					"loosecog": "5%"
				},
				"encs": [
					"puppet_plow",
					"puppet_broken",
					"puppet_farmer",
					"puppet_remains",
					"puppet_strawman",
					"puppet_strawman",
					"puppet_soil",
					"puppet_rustedsickle"
				]
			},
			{
				"id": "clockcastle_grounds",
				"name": "Corivar's Castle Courtyard",
				"level": 17,
				"length": 50,
				"dist": 800,
				"require": "evt_puppet_locallord",
				"desc": "The large grounds before the locked away estate once owned by Corivar.",
				"run": {
					"stamina": 1
				},
				"result": {
					"herbs": 10,
					"machinae": "1~2",
					"automatas": "20%",
					"puppets": "3~4"
				},
				"loot": {
					"herbs": "1~3"
				},
				"once": {
					"magiphysics.max": 1
				},
				"encs": [
					"puppet_plow",
					"puppet_mechanical_locks",
					"puppet_mechanical_house",
					"puppet_fallen_scout",
					"puppet_deadanimal",
					"puppet_strawman",
					"puppet_unmaintainedgrowth",
					"puppet_roads",
					"puppet_roamingtender"
				]
			}
		],
		"dungeons": [
			{
				"id": "clockwork_castle",
				"name": "Corivar's Castle",
				"level": 17,
				"length": 200,
				"require": "g.magiphysics>=5&&g.clockcastle_grounds>=1",
				"desc": "A large castle moving and shaping itself endlessly.",
				"dist": 800,
				"run": {
					"stamina": 1,
					"mana": 1
				},
				"result": {
					"machinae": "8~10",
					"automatas": "5~7",
					"puppets": "12~15",
					"gold": 500,
					"gems": 5
				},
				"loot": {
					"loosecog": "100%"
				},
				"boss": {
					"200": [
						"clockwork_core",
						"clockknight",
						"clockknight",
						"clockknight",
						"clocksentry",
						"clocksentry",
						"clockmage",
						"clockmage"
					],
					"1": [
						"clockscout",
						"clockservant",
						"clockservant",
						"clockservant"
					],
					"150": [
						"clockwork_core",
						"clockknight",
						"clockknight",
						"clockservant",
						"clockservant"
					],
					"100": [
						"clockwork_core",
						"clockknight",
						"clockknight",
						"clockmage",
						"clockmage"
					],
					"50": [
						"clockwork_core",
						"clockservant",
						"clockservant",
						"clockdicer"
					]
				},
				"spawns": [
					[
						"clockservant",
						"clockservant"
					],
					[
						"clockservant",
						"clockdicer"
					],
					[
						"clockknight",
						"clocksentry"
					],
					[
						"clockknight",
						"clockknight",
						"clockmage"
					],
					[
						"clockknight",
						"clocksentry",
						"clockmage"
					],
					[
						"clockknight",
						"clocksentry",
						"clockmage",
						"clockscout"
					],
					"clockknight",
					"clocksentry",
					"clockmage",
					"clockservant"
				]
			}
		],
		"clashes": [
			{
				"id": "clockwork_castle_core",
				"name": "Clockwork sanctum",
				"unreturnable": true,
				"sym": "⚔💀",
				"desc": "In the innermost part of a castle you find a chamber, guarded by unusually well-armed automata. it's clear that whatever's controlling the castle is here.",
				"require": "g.clockwork_castle>0",
				"level": 17,
				"dist": 800,
				"run": {
					"stamina": 1.5
				},
				"buy": {
					"automatas": 1
				},
				"result": {
					"title": "Troubleshooter"
				},
				"length": 2,
				"boss": {
					"1": [
						"clockknight_elite",
						"clockknight_elite",
						"clockmage_elite",
						"clockmage_elite"
					],
					"2": [
						"corivar_replica",
						"clockwork_core_elite",
						"clockwork_core_elite"
					]
				}
			}
		],
		"events": [
			{
				"id": "evt_puppet_locallord",
				"name": "Faraway Estate",
				"desc": "A quick visit to the village's headsman confirms rumors of a castle, which, despite being abandoned for as long as anyone can remember, still appears to be in pristine condition.",
				"require": "g.localfields>0&&g.fazbitshop>0"
			},
			{
				"id": "evt_clockwork_core",
				"name": "Clockwork core",
				"desc": "In the remains of Corivar's replica you find an odd brass orb, serving as it's core. It must certainly be worth studying.",
				"require": "g.clockwork_castle_core>0"
			}
		],
		"hall": {
			"data": {
				"upgrades": [
					{
						"id": "corivar_trophy",
						"name": "runed brass orb",
						"sym": "🏰",
						"tags": "hall",
						"desc": "An orb consisting of multiple layers of brass, each covered in runes too tiny to have been engraved by human hand. It appears to contain memories belonging to Corivar, but so far no method has succeeded in retrieving them.",
						"require": "g.evt_clockwork_core>0",
						"max": 1,
						"mod": {
							"assembleautomata.cost.bloodgem": -2,
							"assembleautomata.cost.spiritgem": -2,
							"assembleautomata.length": -1
						},
						"result": {
							"fame": 10
						}
					}
				]
			}
		}
	}
}