[
	{
		"id": "shortsword",
		"damage":"1~3",
		"attack": {
			"kind": "slash",
			"damage": "i.damage||0",
			"potencies":[
				"sworddmg",
				"physdmg",
				"slashdmg"
			]
		},
		"tags": "t_martial,t_slash,t_shortsword,t_swords,d_shortsword,d_swords",
		"cost": 30,
		"level": 1
	},
	{
		"id": "club",
		"damage": 1,
		"attack": {
			"kind": "blunt",
			"damage": "(i.damage||0)*1.2",
			"potencies":[
				"physdmg",
				"bluntdmg"
			]
		},
		"cost": 15,
		"only":"wood,stone",
		"tags": "t_martial,t_blunt,t_club,d_club",
		"level": 1
	},
	{
		"id": "cane",
		"damage": 1,
		"attack": {
			"kind": "blunt",
			"damage": "(i.damage||0)",
			"potencies":[
				"physdmg",
				"bluntdmg"
			]
		},
		"cost": 15,
		"only":"wood",
		"tags": "t_martial,t_blunt,t_cane,d_cane",
		"level": 1,
		"enchants": 2
	},
	{
		"id": "knife",
		"damage": 1,
		"attack": {
			"kind": "pierce",
			"damage": "(i.damage||0)",
			"potencies":[
				"physdmg",
				"piercedmg"
			]
		},
		"tags": "t_martial,t_pierce,t_knife,d_knife",
		"cost": 20,
		"level": 1,
		"enchants": 2
	},
	{
		"id": "staff",
		"damage": "1~2",
		"attack": {
			"kind": "blunt",
			"damage": "(i.damage||0)*1.1",
			"potencies":[
				"physdmg",
				"bluntdmg"
			]
		},
		"cost": 25,
		"tags": "t_blunt,t_staff,t_staves,d_staff,d_staves",
		"level": 1,
		"hands": 2,
		"enchants": 6
	},
	{
		"id": "broomstick",
		"only": "wood",
		"damage": "1~2",
		"attack": {
			"kind": "blunt",
			"damage": "(i.damage||0)*1.1",
			"potencies":[
				"physdmg",
				"bluntdmg"
			]
		},
		"cost": 20,
		"tags": "t_martial,t_blunt,t_broomstick,d_broomstick",
		"level": 0,
		"enchants": 4
	},
	{
		"id": "wand",
		"tags": "t_wand,t_magic,d_wand,d_magic",
		"cost": 10,
		"hands": 1,
		"level": 0,
		"enchants": 4,
		"only":"wood,natural,ethereal",
		"properties": 1
	},
	{
		"id": "rod",
		"tags": "t_rod,t_magic,d_rod,d_magic",
		"cost": 30,
		"hands": 1,
		"level": 4,
		"enchants": 5,
		"only":"metal,crystal,ethereal",
		"properties": 1
	},
	{
		"id": "fetish",
		"tags": "t_fetish,t_magic,d_fetish,d_magic",
		"cost": 100,
		"hands": 1,
		"level": 5,
		"only": "wood,natural",
		"enchants": 8,
		"properties": 1
	},
	{
		"id": "weap_orb",
		"name": "orb",
		"desc": "A focus for your magic.",
		"tags": "t_orb,t_magic,d_orb,d_magic",
		"cost": 100,
		"hands": 2,
		"level": 8,
		"enchants": 7,
		"only": "glass,mat_ruby,crystal",
		"properties": 1
	},
	{
		"id": "greatstaff",
		"tags": "t_greatstaff,t_staves,t_magic,d_greatstaff,d_staves,d_magic",
		"cost": 50,
		"hands": 2,
		"level": 6,
		"enchants": 12,
		"only":"wood,natural,adamant,ethereal",
		"properties": 1
	},
	{
		"id": "dagger",
		"damage": 1,
		"attack": {
			"kind": "pierce",
			"damage": "(i.damage||0)*1.1",
			"potencies":[
				"physdmg",
				"piercedmg"
			]
		},
		"cost": 20,
		"tags": "t_martial,t_pierce,t_dagger,d_dagger",
		"level": 1,
		"enchants": 2
	},
	{
		"id": "sword",
		"tags": "t_martial,t_slash,t_sword,t_swords,d_sword,d_swords",
		"damage": "1~4",
		"attack": {
			"kind": "slash",
			"damage": "(i.damage||0)*1.1",
			"potencies":[
				"sworddmg",
				"physdmg",
				"slashdmg"
			]
		},
		"cost": 50,
		"hands": 2,
		"level": 3,
		"enchants": 1
	},
	{
		"id": "longsword",
		"damage": "2~4",
		"attack": {
			"kind": "slash",
			"damage": "(i.damage||0)*1.2",
			"potencies":[
				"sworddmg",
				"physdmg",
				"slashdmg"
			]
		},
		"cost": 50,
		"hands": 2,
		"tags": "t_martial,t_slash,t_longsword,t_swords,d_longsword,d_swords",
		"level": 3,
		"enchants": 3
	},
	{
		"id": "axe",
		"damage": "1~2",
		"attack": {
			"kind": "slash",
			"damage": "(i.damage||0)*1.25",
			"potencies":[
				"physdmg",
				"slashdmg"
			]
		},
		"cost": 40,
		"tags": "t_martial,t_slash,t_axe,t_axes,d_axe,d_axes",
		"level": 1
	},
	{
		"id": "battleaxe",
		"damage": "1~3",
		"attack": {
			"kind": "slash",
			"damage": "(i.damage||0)*1.3",
			"potencies":[
				"physdmg",
				"slashdmg"
			]
		},
		"cost": 50,
		"tags": "t_martial,t_slash,t_battleaxe,t_axes,d_battleaxe,d_axes",
		"hands": 2,
		"level": 2
	},
	{
		"id": "mace",
		"damage": "1~2",
		"attack": {
			"kind": "blunt",
			"damage": "(i.damage||0)*1.2",
			"potencies":[
				"physdmg",
				"bluntdmg"
			]
		},
		"cost": 30,
		"hands": 1,
		"tags": "t_martial,t_blunt,t_mace,d_mace",
		"level": 3,
		"enchants": 2
	},
	{
		"id": "warhammer",
		"damage": "1~4",
		"attack": {
			"kind": "blunt",
			"damage": "(i.damage||0)*1.2",
			"potencies":[
				"physdmg",
				"bluntdmg",
				"hammerdmg"
			]
		},
		"cost": 50,
		"tags": "t_martial,t_blunt,t_warhammer,d_warhammer",
		"hands": 2,
		"level": 3
	},
	{
		"id": "spear",
		"damage": "1~3",
		"attack": {
			"kind": "pierce",
			"damage": "(i.damage||0)*1.2",
			"potencies":[
				"physdmg",
				"piercedmg"
			]
		},
		"cost": 30,
		"tags": "t_martial,t_pierce,t_spear,d_spear",
		"hands": 2,
		"level": 2,
		"enchants": 2
	}
]